{
  "port": 2302,
  "profile_name": "server",
  "config": "CONFIG_server.cfg",
  "install_dir": "./",
  "auth": {
    "username": "anonymous",
    "password": null
  },
  "mod_list": {
    "ESSEKER": {
      "Workshop": "498101407"
    },
    "RHS_GREF": {
      "Workshop": "1660351198"
    },
    "RHS_SAF": {
      "Workshop": "843632231"
    },
    "RHS_USAF": {
      "Workshop": "843577117"
    },
    "RAVAGE": {
      "Workshop": "1376636636"
    },
    "OPTRE": {
      "Workshop": "769440155"
    },
    "TFAR": {
      "Local": "@TFAR"
    },
    "ACE_RHS_GREF": {
      "Workshop": "773125288"
    },
    "CUP_WEAPONS": {
      "Workshop": "497660133"
    },
    "CUP_TERRAINS_CORE": {
      "Workshop": "583496184"
    },
    "ACE_OPTRE": {
      "Workshop": "1267657613"
    },
    "ACE_IFA3": {
      "Workshop": "773759919"
    },
    "OPTRE_FC": {
      "Workshop": "1572627279"
    },
    "ACE_CUP_VEHICLES": {
      "Workshop": "621650475"
    },
    "CUP_TERRAINS_MAPS": {
      "Workshop": "583544987"
    },
    "CUP_UNITS": {
      "Workshop": "497661914"
    },
    "ACE_CUP_TERRAINS": {
      "Workshop": "1375890861"
    },
    "ACHILLES": {
      "Workshop": "723217262"
    },
    "ENHANCED_MOVEMENT": {
      "Workshop": "333310405"
    },
    "RHS_AFRF": {
      "Workshop": "843425103"
    },
    "ACE3": {
      "Workshop": "463939057"
    },
    "ACE_RHS_AFRF": {
      "Workshop": "773131200"
    },
    "ACE_CUP_WEAPONS": {
      "Workshop": "549676314"
    },
    "CUP_VEHICLES": {
      "Workshop": "541888371"
    },
    "CBA_A3": {
      "Workshop": "450814997"
    },
    "IFA3": {
      "Workshop": "660460283"
    }
  },
  "mod_pack_list": {
    "ACE_RHS": [
      {
        "Pack": "CORE"
      },
      {
        "Mod": "ACE_RHS_AFRF"
      },
      {
        "Mod": "ACE_RHS_USAF"
      },
      {
        "Mod": "ACE_RHS_GREF"
      }
    ],
    "ACE_OPTRE": [
      {
        "Pack": "CORE"
      },
      {
        "Mod": "ACE_OPTRE"
      }
    ],
    "ACE": [
      {
        "Pack": "CORE"
      },
      {
        "Mod": "ACE3"
      },
      {
        "If": [
          "RHS",
          "ACE_RHS"
        ]
      },
      {
        "If": [
          "OPTRE",
          "ACE_OPTRE"
        ]
      },
      {
        "If": [
          "CUP",
          "ACE_CUP"
        ]
      }
    ],
    "CORE": [
      {
        "Mod": "CBA_A3"
      },
      {
        "Mod": "ENHANCED_MOVEMENT"
      },
      {
        "Mod": "ACHILLES"
      }
    ],
    "CUP": [
      {
        "Pack": "CORE"
      },
      {
        "Mod": "CUP_TERRAINS_CORE"
      },
      {
        "Mod": "CUP_TERRAINS_MAPS"
      },
      {
        "Mod": "CUP_UNITS"
      },
      {
        "Mod": "CUP_VEHICLES"
      },
      {
        "Mod": "CUP_WEAPONS"
      }
    ],
    "ACE_CUP": [
      {
        "Pack": "CORE"
      },
      {
        "Mod": "ACE_CUP_TERRAINS"
      },
      {
        "Mod": "ACE_CUP_VEHICLES"
      },
      {
        "Mod": "ACE_CUP_WEAPONS"
      }
    ],
    "OPTRE": [
      {
        "Pack": "CORE"
      },
      {
        "Mod": "OPTRE"
      },
      {
        "Mod": "OPTRE_FC"
      }
    ],
    "RHS": [
      {
        "Pack": "CORE"
      },
      {
        "Mod": "RHS_AFRF"
      },
      {
        "Mod": "RHS_USAF"
      },
      {
        "Mod": "RHS_GREF"
      },
      {
        "Mod": "RHS_SAF"
      }
    ]
  }
}