{
    "mods": [
        {
            "name": "CBA A3",
            "path": {
                "Workshop": "450814997"
            }
        },



        {
            "name": "ALiVE",
            "path": {
                "Workshop": "620260972"
            }
        },
        {
            "name": "ALiVE GM",
            "path": {
                "Workshop": "2396443680"
            }
        },



        {
            "name": "TFAR (BETA)",
            "path": {
                "Workshop": "894678801"
            }
        },
        {
            "name": "TFAR GM",
            "path": {
                "Workshop": "2456863620"
            }
        },



        {
            "name": "Antistasi - The Mod",
            "path": {
                "Workshop": "2867537125"
            }
        },



        {
            "name": "ACE3",
            "path": {
                "Workshop": "463939057"
            }
        },
        {
            "name": "ACE Interaction Menu Expansion",
            "path": {
                "Workshop": "1376867375"
            }
        },
        {
            "name": "ACE3 RHS USAF",
            "path": {
                "Workshop": "773125288"
            }
        },
        {
            "name": "ACE3 RHS AFRF",
            "path": {
                "Workshop": "773131200"
            }
        },
        {
            "name": "ACE3 RHS GREF",
            "path": {
                "Workshop": "884966711"
            }
        },
        {
            "name": "ACE3 RHS SAF",
            "path": {
                "Workshop": "2174495332"
            }
        },
        {
            "name": "ACE3 CUP Terrains",
            "path": {
                "Workshop": "1375890861"
            }
        },
        {
            "name": "ACE3 CUP Vehicles",
            "path": {
                "Workshop": "621650475"
            }
        },
        {
            "name": "ACE3 CUP Weapons",
            "path": {
                "Workshop": "549676314"
            }
        },
        {
            "name": "ACE3 GM",
            "path": {
                "Workshop": "2633534991"
            }
        },
        {
            "name": "ACE3 SOG",
            "path": {
                "Workshop": "2633537792"
            }
        },



        {
            "name": "RHS USAF",
            "path": {
                "Workshop": "843577117"
            }
        },
        {
            "name": "RHS AFRF",
            "path": {
                "Workshop": "843425103"
            }
        },
        {
            "name": "RHS GREF",
            "path": {
                "Workshop": "843593391"
            }
        },
        {
            "name": "RHS SAF",
            "path": {
                "Workshop": "843632231"
            }
        },



        {
            "name": "CUP Terrains - Core",
            "path": {
                "Workshop": "583496184"
            }
        },
        {
            "name": "CUP Terrains - Maps",
            "path": {
                "Workshop": "583544987"
            }
        },
        {
            "name": "CUP Units",
            "path": {
                "Workshop": "497661914"
            }
        },
        {
            "name": "CUP Vehicles",
            "path": {
                "Workshop": "541888371"
            }
        },
        {
            "name": "CUP Weapons",
            "path": {
                "Workshop": "497660133"
            }
        },
        {
            "name": "CUP Terrains - Maps 2.0",
            "path": {
                "Workshop": "1981964169"
            }
        }
    ]
}
